[
  {
    "id": "1",
    "nojs": "ABC-12-12345",
    "date": "1-Mar-2020",
    "time": "18:00",
    "workDetails": "Preventive Maintenance PE ABC",
    "location": "TS: SMK TMN MEGAH RIA",
    "status": "Execute",

    "switching":
    {
      "TS:  SMK TMN MEGAH RIA": "Unassigned",
      "SS:  SSU GREEN HAVEN": "Jane",
      "TS:  PDT TDC 12": "Lawson",
      "TS:  PDT TDC 11": "Watson"
    }
  },
  {
    "id": "2",
    "nojs": "NS-20-20788",
    "date": "11-Jul-2020",
    "time": "09:00 AM",
    "workDetails": "Preventive Maintenance PE ABC",
    "location": "TS: BOMBA MANTIN ",
    "status": "Assigned",
    "switching":
    {
      "TS:  SMK TMN MEGAH RIA": "Unassigned",
      "SS:  SSU GREEN HAVEN": "Jane",
      "TS:  PDT TDC 12": "Lawson",
      "TS:  PDT TDC 11": "Watson"
    }
  },
  {
    "id": "3",
    "nojs": "ABC-12-12345",
    "date": "1-Mar-2020",
    "time": "18:00",
    "workDetails": "Preventive Maintenance PE ABC",
    "location": "TS: SMK TMN MEGAH RIA",
    "status": "unassigned",

    "switching":
    {
      "TS:  SMK TMN MEGAH RIA": "Unassigned",
      "SS:  SSU GREEN HAVEN": "Jane",
      "TS:  PDT TDC 12": "Lawson",
      "TS:  PDT TDC 11": "Watson"
    }
  },
  {
    "id": "4",
    "nojs": "ABC-12-12345",
    "date": "1-Mar-2020",
    "time": "18:00",
    "workDetails": "Preventive Maintenance PE ABC",
    "location": "TS: SMK TMN MEGAH RIA",
    "status": "Issue Open",

    "switching":
    {
      "TS:  SMK TMN MEGAH RIA": "Unassigned",
      "SS:  SSU GREEN HAVEN": "Jane",
      "TS:  PDT TDC 12": "Lawson",
      "TS:  PDT TDC 11": "Watson"
    }
  },
  {
    "id": "5",
    "nojs": "ABC-19-88888",
    "date": "1-Aug-2020",
    "time": "18:00",
    "workDetails": "Preventive Maintenance PE ABC",
    "location": "TS: SMK TMN MEGAH RIA",
    "status": "Unassigned",

    "switching":
    {
      "TS:  SMK TMN MEGAH RIA": "Ali Aboo",
      "SS:  SSU GREEN HAVEN": "Jane",
      "TS:  PDT TDC 12": "Lawson",
      "TS:  PDT TDC 11": "Watson"
    }
  }
]