[
  {
    "id": "1",
    "name": "Jamse Dean",
    "confirmed": true,
    "np": "100666564"
  },
  {
    "id": "2",
    "name": "Leannor Khan",
    "confirmed": false,
    "np": "100666564"
  },
  {
    "id": "3",
    "name": "Mary Jane",
    "confirmed": true,
    "np": "100666564"
  },
  {
    "id": "4",
    "name": "Doris Delaney",
    "confirmed": false,
    "np": "100666564"
  },
  {
    "id": "5",
    "name": "Mat John",
    "confirmed": false,
    "np": "100666564"
  }








]